Intro Examples to grizbayr
…
Sample From the Posterior

Samples can be directly collected from the posterior with the
following function.

sample_from_posterior(input_df, distribution = "conversion_rate")
#> Using default priors.
#> Using default priors.
#> Using default priors.
#> # A tibble: 150,000 × 3
#>    option_name samples sample_id
#>    <chr>         <dbl>     <int>
#>  1 A            0.0991         1
#>  2 A            0.109          2
#>  3 A            0.106          3
#>  4 A            0.0923         4
#>  5 A            0.102          5
#>  6 A            0.113          6
#>  7 A            0.103          7
#>  8 A            0.102          8
#>  9 A            0.0875         9
#> 10 A            0.0924        10
#> # ℹ 149,990 more rows
…
